<!--<svg width="0" height="0">-->
<!--    <defs>-->
<!--        <clipPath id="clip-shape">-->
<!--            <path d="M0 15C0 6.71573 6.71573 0 15 0H111C119.284 0 126 6.71573 126 15V70.5529C126 76.3262 122.687 81.5871 117.48 84.0811L72.6356 105.561C68.7363 107.429 64.2208 107.523 60.2469 105.82L9.09121 83.8962C3.57595 81.5326 0 76.1095 0 70.1091V15Z" fill="white"/>-->
<!--        </clipPath>-->
<!--    </defs>-->
<!--</svg>-->

<svg width="140" height="109" viewBox="0 0 140 109" fill="none" xmlns="http://www.w3.org/2000/svg">
    <path d="M0 15C0 6.71572 6.71573 0 15 0H125C133.284 0 140 6.71573 140 15V73.4736C140 79.7151 136.135 85.3045 130.295 87.5078L78.3866 107.093C75.1204 108.326 71.5266 108.38 68.2246 107.248L10.1332 87.3219C4.07136 85.2427 0 79.5419 0 73.1334V15Z" fill="white"/>
</svg>



